{
	"toolbar": {
		"fill": "Fill",
		"transform": "Transform",
		"position": "Position",
		"move_up": "Move Up",
		"move_down": "Move Down",
		"reset": "Reset",
		"font_size": "Font Size",
		"line_height": "Line Height",
		"bold": "Bold",
		"italic": "Italic",
		"underline": "Underline",
		"text_align": "Text Alignment",
		"stroke": "Stroke",
		"stroke_width": "Stroke Width",
		"curved_text": "Curved Text",
		"edit_text": "Edit Text",
		"color": "Color",
		"patterns": "Patterns",
		"transparency": "Transparency",
		"align_left": "Align Left",
		"align_top": "Align Top",
		"align_right": "Align Right",
		"align_bottom": "Align Bottom",
		"center_h": "Center Horizontal",
		"center_v": "Center Vertical",
		"flip_h": "Flip Horizontal",
		"flip_v": "Flip Vertical",
		"curved_text_switch": "Switch",
		"curved_text_reverse": "Reverse",
		"radius": "Radius",
		"spacing": "Spacing",
		"letter_spacing": "Letter Spacing",
		"advanced_editing": "Advanced Editing",
		"text_transform": "Text Transform",
		"back": "Back"
	},
	"actions": {
		"reset_product": "Reset",
		"zoom": "Zoom",
		"magnify_glass": "Magnify Glass",
		"download": "Download",
		"info": "Info",
		"info_content": "You can set the info text in the Fancy Product Designer Labels settings.",
		"print": "Print",
		"save": "Save",
		"load": "Load",
		"manage_layers": "Manage Layers",
		"qr_code": "Add QR-Code",
		"qr_code_input": "Enter a URL, some text...",
		"qr_code_add_btn": "Add QR-Code",
		"undo": "Undo",
		"redo": "Redo",
		"snap": "Center Snap",
		"preview_lightbox": "Preview",
		"save_placeholder": "Optional: Enter a title",
		"ruler": "Toggle Ruler",
		"previous_view": "Previous View",
		"next_view": "Next View",
		"start_guided_tour": "Start Guided Tour"
	},
	"modules": {
		"products": "Swap Product",
		"images": "Add Image",
		"upload_zone": "Click or drop images here",
		"facebook_select_album": "Select An Album",
		"text": "Add Text",
		"text_input_placeholder": "Enter some text",
		"text_add_btn": "Add Text",
		"designs": "Choose From Designs",
		"designs_search_in": "Search in",
		"manage_layers": "Manage Layers",
		"images_agreement": "I have the rights to use the images.",
		"images_confirm_button": "Confirm",
		"pixabay_search": "Search in Pixabay library",
		"text_layers_clear": "Clear"
	},
	"image_editor": {
		"mask": "Mask",
		"filters": "Filters",
		"color_manipulation": "Color Manipulation",
		"custom_cropping": "Custom Cropping",
		"filter_none": "None",
		"brightness": "Brightness",
		"contrast": "Contrast",
		"remove_white": "Remove White",
		"remove_white_distance": "Distance",
		"restore": "Restore Original",
		"save": "Save"
	},
	"misc": {
		"initializing": "Initializing Product Designer",
		"out_of_bounding_box": "Move element in its containment!",
		"product_saved": "Product Saved!",
		"loading_image": "Loading Image...",
		"uploaded_image_size_alert" : "Sorry! But the uploaded image size does not conform our indication of size.<br />Minimum Width: %minW pixels<br />Minimum Height: %minH pixels<br />Maximum Width: %maxW pixels<br />Maximum Height: %maxH pixels",
		"modal_done": "Done",
		"minimum_dpi_info": "The JPEG image does not have the required DPI of %dpi.",
		"maximum_size_info": "The image %filename exceeds the maximum file size of %mbMB.",
		"customization_button": "Customize",
		"shortcode_order:_success_sent": "The order has been successfully sent to the site owner!",
		"shortcode_order:_fail_sent": "The order could not be sent. Please try again or contact the site owner!",
		"not_supported_device_info": "Sorry! But the product designer can not be displayed on your device. Please use a device with a larger screen!",
		"share:_button": "Share Design",
		"share:_process": "An unique URL to share will be created for you...",
		"share:_default_text": "Check out my design!",
		"customization_required_info": "You need to customize the default design!",
		"image_added": "Image Added!",
		"reset_confirm": "Are you sure to reset everything?",
		"popup_blocker_alert": "Please disable your pop-up blocker and try again.",
		"shortcode_form:send": "Send",
		"shortcode_form:name_placeholder": "Enter your name here",
		"shortcode_form:email_placeholder": "Enter your email here",
		"login_required_info": "You need to be logged in to upload images!",
		"view_optional_unlock": "Unlock view",
		"account_storage:login_required": "Please log into your account!",
		"account_storage:products_loaded": "Saved Products Loaded.",
		"guided_tour_back": "Back",
		"guided_tour_next": "Next"
	},
	"plus": {
		"names_numbers": "Names & Numbers",
		"names_numbers_add_new": "Add New",
		"drawing": "Free Drawing",
		"drawing_brush_type": "Brush Type",
		"drawing_pencil": "Pencil",
		"drawing_circle": "Circle",
		"drawing_spray": "Spray",
		"drawing_color": "Color",
		"drawing_line_width": "Line Width",
		"drawing_draw_here": "Draw Here",
		"drawing_clear": "Clear",
		"drawing_add": "Add",
		"bulk_add_variations_title": "Bulk Order",
		"bulk_add_variations_add": "Add",
		"bulk_add_variations_term": "Please set all variations in the Bulk Order panel correctly!"
	},
	"woocommerce": {
		"catalog:_add_to_cart": "Customize",
		"cart:_re-edit product": "Click here to re-edit",
		"get_a_quote": "Get a quote",
		"order:_email_view_customized_product" : "View Customized Product",
		"save_order": "Save Order",
		"saving_order": "Saving Order",
		"order_saved": "Order Saved",
		"order_saving_failed": "Saving Order Failed. Please try again!",
		"loading_product": "Loading product...",
		"product_loading_fail": "Product could not be loaded. Please try again!"
	}
}